[{
  "_id": {
    "$oid": "5e2fba8ecf32523c8615212e"
  },
  "req": "lPsAFLlt",
  "id": [
    "WS000001"
  ],
  "fname": [
    "WS000001__2020-01-28T04-36-20_2020-01-28T04-37-00.csv"
  ],
  "st": "2020-01-28T04:36:20",
  "ed": "2020-01-28T04:37:00",
  "pg": [
    -1
  ]
},{
  "_id": {
    "$oid": "5e2fba95cf32523c8615214c"
  },
  "req": "dPA5OG9V",
  "id": [
    "WS000001"
  ],
  "fname": [
    "WS000001__2020-01-28T04-36-20_2020-01-28T04-37-00.csv"
  ],
  "st": "2020-01-28T04:36:20",
  "ed": "2020-01-28T04:37:00",
  "pg": [
    -1
  ]
},{
  "_id": {
    "$oid": "5e2fbaafcf32523c861521a3"
  },
  "req": "gpYuqzCO",
  "id": [
    "WS000001"
  ],
  "fname": [
    "WS000001__2020-01-28T04-36-00_2020-01-28T04-37-53.csv"
  ],
  "st": "2020-01-28T04:36:00",
  "ed": "2020-01-28T04:37:53",
  "pg": [
    -1
  ]
},{
  "_id": {
    "$oid": "5e2fbb2acf32523c861522ff"
  },
  "req": "MhFpDAWr",
  "id": [
    "WS000001"
  ],
  "fname": [
    "WS000001__2020-01-28T04-37-00_2020-01-28T04-39-00.csv"
  ],
  "st": "2020-01-28T04:37:00",
  "ed": "2020-01-28T04:39:00",
  "pg": [
    -1
  ]
},{
  "_id": {
    "$oid": "5e2fbb31cf32523c86152315"
  },
  "req": "dgbGqkeC",
  "id": [
    "WS000001"
  ],
  "fname": [
    "WS000001__2020-01-28T04-40-14_2020-01-28T04-40-14.csv"
  ],
  "st": "2020-01-28T04:40:14",
  "ed": "2020-01-28T04:40:14",
  "pg": [
    -1
  ]
},{
  "_id": {
    "$oid": "5e2fbb3dcf32523c86152343"
  },
  "req": "PpVQ6vCR",
  "id": [
    "WS000001"
  ],
  "fname": [
    "WS000001__2020-01-28T04-38-14_2020-01-28T04-40-14.csv"
  ],
  "st": "2020-01-28T04:38:14",
  "ed": "2020-01-28T04:40:14",
  "pg": [
    -1
  ]
},{
  "_id": {
    "$oid": "5e2fbb4ecf32523c86152376"
  },
  "req": "CKYcfF5N",
  "id": [
    "WS000001"
  ],
  "fname": [
    "WS000001__2020-01-28T04-37-14_2020-01-28T04-40-14.csv"
  ],
  "st": "2020-01-28T04:37:14",
  "ed": "2020-01-28T04:40:14",
  "pg": [
    -1
  ]
},{
  "_id": {
    "$oid": "5e2fbb84cf32523c86152441"
  },
  "req": "07TESuWb",
  "id": [
    "WS000001"
  ],
  "fname": [
    "WS000001__2020-01-28T04-38-32_2020-01-28T04-41-32.csv"
  ],
  "st": "2020-01-28T04:38:32",
  "ed": "2020-01-28T04:41:32",
  "pg": [
    -1
  ]
},{
  "_id": {
    "$oid": "5e2fbc04cf32523c8615261c"
  },
  "req": "wvTbVyVp",
  "id": [
    "WS000001"
  ],
  "fname": [
    "WS000001__2020-01-28T04-38-00_2020-01-28T04-45-30.csv"
  ],
  "st": "2020-01-28T04:38:00",
  "ed": "2020-01-28T04:45:30",
  "pg": [
    -1
  ]
},{
  "_id": {
    "$oid": "5e2fbd14cf32523c86152a42"
  },
  "req": "xOsflyWf",
  "id": [
    "WS000001"
  ],
  "fname": [
    "WS000001__2020-01-28T04-42-00_2020-01-28T04-45-30.csv"
  ],
  "st": "2020-01-28T04:42:00",
  "ed": "2020-01-28T04:45:30",
  "pg": [
    -1
  ]
},{
  "_id": {
    "$oid": "5e2fc3ebcf32523c861543da"
  },
  "req": "wA5dev6w",
  "id": [
    "WS000001"
  ],
  "fname": [
    "WS000001__2020-01-28T04-56-49_2020-01-28T05-16-49.csv"
  ],
  "st": "2020-01-28T04:56:49",
  "ed": "2020-01-28T05:16:49",
  "pg": [
    -1
  ]
},{
  "_id": {
    "$oid": "5e2fc6a3cf32523c86154a19"
  },
  "req": "X6jyMARN",
  "id": [
    "WS000001"
  ],
  "fname": [
    "WS000001__2020-01-28T05-28-00_2020-01-28T05-29-00.csv"
  ],
  "st": "2020-01-28T05:28:00",
  "ed": "2020-01-28T05:29:00",
  "pg": [
    100
  ]
},{
  "_id": {
    "$oid": "5e3abc5dcf32523c8617ca48"
  },
  "req": "G64BVifR",
  "id": [
    "WS000001"
  ],
  "fname": [
    "WS000001__2020-02-05T12-59-00_2020-02-05T13-00-00.csv"
  ],
  "st": "2020-02-05T12:59:00",
  "ed": "2020-02-05T13:00:00",
  "pg": [
    100
  ]
},{
  "_id": {
    "$oid": "5eb37cb7cf32523c86248a73"
  },
  "req": "VBGVk4Gh",
  "id": [
    "WS000001",
    "WS000002",
    "WS000003"
  ],
  "fname": [
    "WS000001__2020-05-07T03-12-45_2020-05-07T03-12-45.csv",
    "WS000002__2020-05-07T03-12-45_2020-05-07T03-12-45.csv",
    "WS000003__2020-05-07T03-12-45_2020-05-07T03-12-45.csv"
  ],
  "st": "2020-05-07T03:12:45",
  "ed": "2020-05-07T03:12:45",
  "pg": [
    -1,
    -1,
    -1
  ]
},{
  "_id": {
    "$oid": "5f468a95cf32523c86345281"
  },
  "req": "0xiIoHeH",
  "id": [
    "WS000001"
  ],
  "fname": [
    "WS000001__2020-08-25T16-13-51_2020-08-26T16-13-51.csv"
  ],
  "st": "2020-08-25T16:13:51",
  "ed": "2020-08-26T16:13:51",
  "pg": [
    100
  ]
},{
  "_id": {
    "$oid": "5f4736ddcf32523c86348bac"
  },
  "req": "j0L9dNYr",
  "id": [
    "WS000001",
    "WS000002",
    "WS000004",
    "WS000005"
  ],
  "fname": [
    "WS000001__2020-08-27T04-10-00_2020-08-27T04-30-10.csv",
    "WS000002__2020-08-27T04-10-00_2020-08-27T04-30-10.csv",
    "WS000004__2020-08-27T04-10-00_2020-08-27T04-30-10.csv",
    "WS000005__2020-08-27T04-10-00_2020-08-27T04-30-10.csv"
  ],
  "st": "2020-08-27T04:10:00",
  "ed": "2020-08-27T04:30:10",
  "pg": [
    100,
    100,
    100,
    100
  ]
},{
  "_id": {
    "$oid": "5f473723cf32523c86348bd4"
  },
  "req": "qnC92Cyp",
  "id": [
    "WS000005"
  ],
  "fname": [
    "WS000005__2020-08-27T04-10-00_2020-08-27T04-30-00.csv"
  ],
  "st": "2020-08-27T04:10:00",
  "ed": "2020-08-27T04:30:00",
  "pg": [
    100
  ]
},{
  "_id": {
    "$oid": "5f47379ccf32523c86348bfc"
  },
  "req": "1HQyh1dJ",
  "id": [
    "WS000001"
  ],
  "fname": [
    "WS000001__2020-08-27T04-10-00_2020-08-27T04-30-00.csv"
  ],
  "st": "2020-08-27T04:10:00",
  "ed": "2020-08-27T04:30:00",
  "pg": [
    100
  ]
},{
  "_id": {
    "$oid": "5f602021cf32523c86372192"
  },
  "req": "YlaFxbj6",
  "id": [],
  "fname": [],
  "st": "2020-07-01T01:59:10",
  "ed": "2020-09-15T01:59:10",
  "pg": []
}]